…
``` r
flow_data <- read_csv("data/example_dataset_5.csv", col_names = c("strain", "yfp", "rfp", "replicate"), comment = "#") %>% 
  print()
```

    ## Parsed with column specification:
    ## cols(
    ##   strain = col_character(),
    ##   yfp = col_double(),
    ##   rfp = col_double(),
    ##   replicate = col_double()
    ## )

    ## # A tibble: 74 x 4
    ##    strain    yfp   rfp replicate
    ##    <chr>   <dbl> <dbl>     <dbl>
    ##  1 schp677  4123 20661         1
    ##  2 schp678  4550 21437         1
    ##  3 schp675  3880 21323         1
    ##  4 schp676  2863 20668         1
    ##  5 schp687  4767 20995         1
    ##  6 schp688  1274 20927         1
    ##  7 schp679  2605 20840         1
    ##  8 schp680  1175 20902         1
    ##  9 schp681  3861 20659         1
    ## 10 schp683  9949 25406         1
    ## # … with 64 more rows
…
# Join the two tables above and assign to a new variable `data`

``` r
data <- inner_join(flow_data, annotations, by = "strain") %>% 
  print()
```

    ## # A tibble: 74 x 6
    ##    strain    yfp   rfp replicate insert_sequence kozak_region
    ##    <chr>   <dbl> <dbl>     <dbl> <chr>           <chr>       
    ##  1 schp677  4123 20661         1 10×AAG          E           
    ##  2 schp678  4550 21437         1 10×AAG          D           
    ##  3 schp675  3880 21323         1 10×AAG          B           
    ##  4 schp676  2863 20668         1 10×AAG          F           
    ##  5 schp687  4767 20995         1 10×AGA          D           
    ##  6 schp688  1274 20927         1 10×AGA          A           
    ##  7 schp679  2605 20840         1 10×AAG          A           
    ##  8 schp680  1175 20902         1 10×AAG          H           
    ##  9 schp681  3861 20659         1 10×AAG          C           
    ## 10 schp683  9949 25406         1 10×AGA          G           
    ## # … with 64 more rows

# Create a new column `ratio` containing ratio of YFP and RFP signals for each strain replicate.

Store the result in the same `data` variable.

``` r
data <- data %>% 
  mutate(ratio = yfp / rfp) %>% 
  print()
```

    ## # A tibble: 74 x 7
    ##    strain    yfp   rfp replicate insert_sequence kozak_region  ratio
    ##    <chr>   <dbl> <dbl>     <dbl> <chr>           <chr>         <dbl>
    ##  1 schp677  4123 20661         1 10×AAG          E            0.200 
    ##  2 schp678  4550 21437         1 10×AAG          D            0.212 
    ##  3 schp675  3880 21323         1 10×AAG          B            0.182 
    ##  4 schp676  2863 20668         1 10×AAG          F            0.139 
    ##  5 schp687  4767 20995         1 10×AGA          D            0.227 
    ##  6 schp688  1274 20927         1 10×AGA          A            0.0609
    ##  7 schp679  2605 20840         1 10×AAG          A            0.125 
    ##  8 schp680  1175 20902         1 10×AAG          H            0.0562
    ##  9 schp681  3861 20659         1 10×AAG          C            0.187 
    ## 10 schp683  9949 25406         1 10×AGA          G            0.392 
    ## # … with 64 more rows
…
